[gd_scene load_steps=2 format=3 uid="uid://dcc7ku4rfunlw"]

[ext_resource type="PackedScene" uid="uid://5t3sqmepo6au" path="res://assets/reference/t_pose_y.dae" id="1"]

[node name="MannequinMasculine" instance=ExtResource("1")]
transform = Transform3D(2.5, 0, 0, 0, 2.5, 0, 0, 0, 2.5, 0, 0, 0)
