[gd_scene load_steps=2 format=3 uid="uid://bl21126rxgaej"]

[ext_resource type="PackedScene" uid="uid://xx6dnc0a2dq1" path="res://assets/gun_model_flat/Rifle_Assault_West.glb" id="1"]

[node name="Rifle_Assault_West" instance=ExtResource("1")]
